-------------------------------------------------------------------------------
Test set: de.hfu.TestBaseResidentServiceWithMock
-------------------------------------------------------------------------------
Tests run: 2, Failures: 0, Errors: 0, Skipped: 0, Time elapsed: 0.133 s - in de.hfu.TestBaseResidentServiceWithMock
