de/hfu/unit/Util.class
de/hfu/integration/service/ResidentService.class
de/hfu/integration/domain/Resident.class
de/hfu/unit/Queue.class
de/hfu/integration/repository/ResidentRepository.class
de/hfu/integration/service/BaseResidentService.class
de/hfu/App.class
de/hfu/integration/service/ResidentServiceException.class
