/home/david/Studium/S3/OSSE/AB5/projekt/src/main/java/de/hfu/integration/repository/ResidentRepository.java
/home/david/Studium/S3/OSSE/AB5/projekt/src/main/java/de/hfu/App.java
/home/david/Studium/S3/OSSE/AB5/projekt/src/main/java/de/hfu/integration/service/ResidentServiceException.java
/home/david/Studium/S3/OSSE/AB5/projekt/src/main/java/de/hfu/unit/Util.java
/home/david/Studium/S3/OSSE/AB5/projekt/src/main/java/de/hfu/integration/service/ResidentService.java
/home/david/Studium/S3/OSSE/AB5/projekt/src/main/java/de/hfu/unit/Queue.java
/home/david/Studium/S3/OSSE/AB5/projekt/src/main/java/de/hfu/integration/service/BaseResidentService.java
/home/david/Studium/S3/OSSE/AB5/projekt/src/main/java/de/hfu/integration/domain/Resident.java
